[{
    "id": 933259,
    "name": "* Mobile App - Photo...",
    "description": "",
    "archived": false,
    "created_at": "2012-08-14T10:36:22-07:00",
    "updated_at": "2012-10-02T12:00:08-07:00",
    "starred": false,
    "url": "https://basecamp.com/1765792/api/v1/projects/933259-mobile-app.json"
}, {
    "id": 1266236,
    "name": "* Pusher Content Publisher",
    "description": "",
    "archived": false,
    "created_at": "2012-10-08T14:03:50-07:00",
    "updated_at": "2012-10-08T14:07:04-07:00",
    "starred": false,
    "url": "https://basecamp.com/1765792/api/v1/projects/1266236-pusher-content.json"
}, {
    "id": 50732,
    "name": "* Pusher Ideas / Brainstorming",
    "description": "",
    "archived": false,
    "created_at": "2010-11-03T17:00:00-07:00",
    "updated_at": "2012-10-02T12:47:13-07:00",
    "starred": false,
    "url": "https://basecamp.com/1765792/api/v1/projects/50732-pusher-ideas.json"
}, {
    "id": 1225717,
    "name": "* Pusher Work",
    "description": "",
    "archived": false,
    "created_at": "2012-10-02T11:32:02-07:00",
    "updated_at": "2012-10-08T12:31:46-07:00",
    "starred": false,
    "url": "https://basecamp.com/1765792/api/v1/projects/1225717-pusher-work.json"
}, {
    "id": 503048,
    "name": "* PusherHQ Website",
    "description": "",
    "archived": false,
    "created_at": "2012-05-22T10:50:59-07:00",
    "updated_at": "2012-10-04T10:44:25-07:00",
    "starred": false,
    "url": "https://basecamp.com/1765792/api/v1/projects/503048-pusherhq-website.json"
}, {
    "id": 1166783,
    "name": "Amy Cooper Web Campaign",
    "description": "",
    "archived": false,
    "created_at": "2012-09-24T09:49:41-07:00",
    "updated_at": "2012-10-08T15:07:10-07:00",
    "starred": true,
    "url": "https://basecamp.com/1765792/api/v1/projects/1166783-amy-cooper-web.json"
}, {
    "id": 1243791,
    "name": "Brock Archer Video Shoot",
    "description": "Tesla Motors video shoot with Brock Archer.",
    "archived": false,
    "created_at": "2012-10-04T11:21:36-07:00",
    "updated_at": "2012-10-05T10:49:22-07:00",
    "starred": false,
    "url": "https://basecamp.com/1765792/api/v1/projects/1243791-brock-archer-video.json"
}, {
    "id": 928508,
    "name": "CoH redesign",
    "description": "",
    "archived": false,
    "created_at": "2012-08-13T15:50:15-07:00",
    "updated_at": "2012-10-08T14:27:47-07:00",
    "starred": true,
    "url": "https://basecamp.com/1765792/api/v1/projects/928508-coh-redesign.json"
}, {
    "id": 971885,
    "name": "ECM - Salus FB Content Publisher",
    "description": "Build a Facebook content publisher for Salus University.",
    "archived": false,
    "created_at": "2012-08-21T12:49:18-07:00",
    "updated_at": "2012-10-05T14:05:39-07:00",
    "starred": true,
    "url": "https://basecamp.com/1765792/api/v1/projects/971885-ecm-salus-fb.json"
}, {
    "id": 50324,
    "name": "FireWhat?: FireWhat Mobile Apps",
    "description": null,
    "archived": false,
    "created_at": "2011-06-23T17:00:00-07:00",
    "updated_at": "2012-10-02T09:51:59-07:00",
    "starred": false,
    "url": "https://basecamp.com/1765792/api/v1/projects/50324-firewhat-firewhat.json"
}, {
    "id": 50361,
    "name": "FireWhat?: FireWhat Website",
    "description": null,
    "archived": false,
    "created_at": "2011-08-30T17:00:00-07:00",
    "updated_at": "2012-10-08T11:44:28-07:00",
    "starred": false,
    "url": "https://basecamp.com/1765792/api/v1/projects/50361-firewhat-firewhat.json"
}, {
    "id": 1174950,
    "name": "Jenn Burger POS Project",
    "description": "",
    "archived": false,
    "created_at": "2012-09-25T09:00:55-07:00",
    "updated_at": "2012-10-02T09:45:46-07:00",
    "starred": true,
    "url": "https://basecamp.com/1765792/api/v1/projects/1174950-jenn-burger-pos.json"
}, {
    "id": 1092163,
    "name": "K-Rose / Breath Video",
    "description": "",
    "archived": false,
    "created_at": "2012-09-11T14:22:30-07:00",
    "updated_at": "2012-10-03T15:01:58-07:00",
    "starred": true,
    "url": "https://basecamp.com/1765792/api/v1/projects/1092163-k-rose-breath.json"
}, {
    "id": 45326,
    "name": "Meraki: Customer Summit Video Shoot",
    "description": null,
    "archived": false,
    "created_at": "2011-07-10T17:00:00-07:00",
    "updated_at": "2012-10-07T11:00:55-07:00",
    "starred": false,
    "url": "https://basecamp.com/1765792/api/v1/projects/45326-meraki-customer.json"
}, {
    "id": 1187063,
    "name": "Nordic Center Website",
    "description": "",
    "archived": false,
    "created_at": "2012-09-26T12:13:40-07:00",
    "updated_at": "2012-10-03T15:20:33-07:00",
    "starred": true,
    "url": "https://basecamp.com/1765792/api/v1/projects/1187063-nordic-center.json"
}, {
    "id": 940821,
    "name": "Ravenzcall Signage",
    "description": "and perhaps logo redesign",
    "archived": false,
    "created_at": "2012-08-15T12:44:21-07:00",
    "updated_at": "2012-09-17T19:58:42-07:00",
    "starred": false,
    "url": "https://basecamp.com/1765792/api/v1/projects/940821-ravenzcall-signage.json"
}, {
    "id": 1254508,
    "name": "StreamView Web Project",
    "description": "Build StreamView web-based features to support their mobile apps",
    "archived": false,
    "created_at": "2012-10-05T17:39:57-07:00",
    "updated_at": "2012-10-08T20:02:58-07:00",
    "starred": false,
    "url": "https://basecamp.com/1765792/api/v1/projects/1254508-streamview-web.json"
}, {
    "id": 673661,
    "name": "Tuscan Cooking Site Redesign",
    "description": "",
    "archived": false,
    "created_at": "2012-06-25T12:38:13-07:00",
    "updated_at": "2012-10-08T15:06:56-07:00",
    "starred": false,
    "url": "https://basecamp.com/1765792/api/v1/projects/673661-tuscan-cooking-site.json"
}]